INDEX VERSION 1.131+E:\dinky_arora_assignments\MiniProjectSpringBoot\.metadata\.plugins\org.eclipse.jdt.core
2218181348.index
340542634.index
3276610990.index
2441233670.index
724504947.index
1083226317.index
1953336053.index
1340563991.index
2255472563.index
559483339.index
171852462.index
195313120.index
1440485902.index
2132194328.index
352697046.index
562308999.index
114379205.index
539498360.index
384670249.index
2229796271.index
3590980579.index
3700406967.index
353292906.index
1646732825.index
1895770998.index
586348767.index
897480691.index
339270085.index
2496650822.index
3265071868.index
2339305829.index
521944993.index
2132989250.index
3130501175.index
4085373521.index
4275101036.index
3534885012.index
3227316888.index
1169078520.index
1147521306.index
1865797976.index
2237243834.index
2873130304.index
1522659170.index
2366109471.index
1508096525.index
2250612566.index
979122055.index
1261338628.index
977205929.index
4049049526.index
28125743.index
2557385249.index
164699177.index
3712609055.index
2497766351.index
623625876.index
3362663395.index
4253954027.index
745165585.index
982020268.index
2364356621.index
4057789849.index
82370825.index
2657810901.index
1722464843.index
4146294539.index
2180915567.index
2003252946.index
331760794.index
3135218383.index
1220848158.index
834575672.index
3229961185.index
3757858136.index
1996023240.index
2531458524.index
3264447229.index
1996847506.index
809871378.index
1034209271.index
3091209912.index
1213108695.index
1414018073.index
833651213.index
1321793991.index
4190918123.index
3607884512.index
3475259031.index
723831932.index
2228502660.index
3144143762.index
3002682403.index
2924429524.index
2884001534.index
1338167039.index
